v 88.9105 1168.4 51.3433
v 89.2214 1168.4 50.9312
v 88.9105 1270 51.3433
v 89.2214 1270 50.9312
v 90.61 1168.4 49.09
v 90.61 1270 49.09
v 88.7688 1168.4 50.4786
v 88.7688 1270 50.4786
v 88.3567 1168.4 50.7895
v 88.3567 1270 50.7895
v 87.1242 1168.4 51.7203
v 87.1242 1270 51.7203
v 85.0837 1168.4 53.2659
v 85.0837 1270 53.2659
v 82.2549 1168.4 55.4172
v 82.2549 1270 55.4172
v 78.6651 1168.4 58.1615
v 78.6651 1270 58.1615
v 74.3486 1168.4 61.4819
v 74.3486 1270 61.4819
v 69.3459 1168.4 65.3574
v 69.3459 1270 65.3574
v 63.7033 1168.4 69.7629
v 63.7033 1270 69.7629
v 57.4721 1168.4 74.6689
v 57.4721 1270 74.6689
v 50.7087 1168.4 80.0418
v 50.7087 1270 80.0418
v 43.4733 1168.4 85.8445
v 43.4733 1270 85.8445
v 35.8303 1168.4 92.0362
v 35.8303 1270 92.0362
v 27.8475 1168.4 98.5734
v 27.8475 1270 98.5734
v 19.5959 1168.4 105.41
v 19.5959 1270 105.41
v 11.1495 1168.4 112.499
v 11.1495 1270 112.499
v 2.58467 1168.4 119.791
v 2.58467 1270 119.791
v -6.02001 1168.4 127.237
v -6.02001 1270 127.237
v -14.5858 1168.4 134.787
v -14.5858 1270 134.787
v -23.0323 1168.4 142.392
v -23.0323 1270 142.392
v -31.2804 1168.4 150.001
v -31.2804 1270 150.001
v -39.2529 1168.4 157.563
v -39.2529 1270 157.563
v -46.881 1168.4 165.023
v -46.881 1270 165.023
v -54.0835 1168.4 172.341
v -54.0835 1270 172.341
v -60.8003 1168.4 179.458
v -60.8003 1270 179.458
v -66.9722 1168.4 186.325
v -66.9722 1270 186.325
v -72.5466 1168.4 192.887
v -72.5466 1270 192.887
v -77.4785 1168.4 199.092
v -77.4785 1270 199.092
v -81.7299 1168.4 204.889
v -81.7299 1270 204.889
v -85.2699 1168.4 210.227
v -85.2699 1270 210.227
v -88.0747 1168.4 215.059
v -88.0747 1270 215.059
v -90.1262 1168.4 219.341
v -90.1262 1270 219.341
v -91.4118 1168.4 223.036
v -91.4118 1270 223.036
v -91.9233 1168.4 226.11
v -91.9233 1270 226.11
v -91.6564 1168.4 228.541
v -91.6564 1270 228.541
v -90.61 1168.4 230.31
v -90.61 1270 230.31
v -88.8405 1168.4 231.356
v -88.8405 1270 231.356
v -86.4104 1168.4 231.623
v -86.4104 1270 231.623
v -83.3358 1168.4 231.112
v -83.3358 1270 231.112
v -79.6413 1168.4 229.826
v -79.6413 1270 229.826
v -75.3588 1168.4 227.775
v -75.3588 1270 227.775
v -70.5267 1168.4 224.97
v -70.5267 1270 224.97
v -65.1886 1168.4 221.43
v -65.1886 1270 221.43
v -59.3919 1168.4 217.179
v -59.3919 1270 217.179
v -53.1866 1168.4 212.247
v -53.1866 1270 212.247
v -46.6247 1168.4 206.672
v -46.6247 1270 206.672
v -39.7585 1168.4 200.5
v -39.7585 1270 200.5
v -32.6406 1168.4 193.784
v -32.6406 1270 193.784
v -25.3232 1168.4 186.581
v -25.3232 1270 186.581
v -17.8632 1168.4 178.953
v -17.8632 1270 178.953
v -10.3007 1168.4 170.98
v -10.3007 1270 170.98
v -2.69192 1168.4 162.732
v -2.69192 1270 162.732
v 4.91263 1168.4 154.286
v 4.91263 1270 154.286
v 12.4627 1168.4 145.72
v 12.4627 1270 145.72
v 19.9091 1168.4 137.115
v 19.9091 1270 137.115
v 27.2011 1168.4 128.55
v 27.2011 1270 128.55
v 34.2899 1168.4 120.104
v 34.2899 1270 120.104
v 41.1266 1168.4 111.853
v 41.1266 1270 111.853
v 47.6638 1168.4 103.87
v 47.6638 1270 103.87
v 53.8555 1168.4 96.2267
v 53.8555 1270 96.2267
v 59.6581 1168.4 88.9913
v 59.6581 1270 88.9913
v 65.0311 1168.4 82.2279
v 65.0311 1270 82.2279
v 69.9371 1168.4 75.9967
v 69.9371 1270 75.9967
v 74.3426 1168.4 70.3541
v 74.3426 1270 70.3541
v 78.2181 1168.4 65.3514
v 78.2181 1270 65.3514
v 81.5385 1168.4 61.0349
v 81.5385 1270 61.0349
v 84.2828 1168.4 57.4451
v 84.2828 1270 57.4451
v 86.4341 1168.4 54.6163
v 86.4341 1270 54.6163
v 87.9797 1168.4 52.5758
v 87.9797 1270 52.5758
f 1 2 3
f 2 4 3
f 2 5 4
f 5 6 4
f 5 7 6
f 7 8 6
f 7 9 8
f 9 10 8
f 9 11 12
f 9 12 10
f 11 13 12
f 13 14 12
f 13 15 14
f 15 16 14
f 15 17 16
f 17 18 16
f 17 19 18
f 19 20 18
f 19 21 22
f 19 22 20
f 21 23 22
f 23 24 22
f 23 25 24
f 25 26 24
f 25 27 28
f 25 28 26
f 27 29 28
f 29 30 28
f 29 31 30
f 31 32 30
f 31 33 32
f 33 34 32
f 33 35 34
f 35 36 34
f 35 37 36
f 37 38 36
f 37 39 40
f 37 40 38
f 39 41 42
f 39 42 40
f 41 43 42
f 43 44 42
f 43 45 44
f 45 46 44
f 45 47 46
f 47 48 46
f 47 49 50
f 47 50 48
f 49 51 50
f 51 52 50
f 51 53 52
f 53 54 52
f 53 55 54
f 55 56 54
f 55 57 56
f 57 58 56
f 57 59 58
f 59 60 58
f 59 61 62
f 59 62 60
f 61 63 62
f 63 64 62
f 63 65 64
f 65 66 64
f 65 67 66
f 67 68 66
f 67 69 70
f 67 70 68
f 69 71 70
f 71 72 70
f 71 73 72
f 73 74 72
f 73 75 74
f 75 76 74
f 75 77 76
f 77 78 76
f 77 79 78
f 79 80 78
f 79 81 80
f 81 82 80
f 81 83 82
f 83 84 82
f 83 85 84
f 85 86 84
f 85 87 88
f 85 88 86
f 87 89 88
f 89 90 88
f 89 91 90
f 91 92 90
f 91 93 92
f 93 94 92
f 93 95 96
f 93 96 94
f 95 97 96
f 97 98 96
f 97 99 98
f 99 100 98
f 99 101 100
f 101 102 100
f 101 103 102
f 103 104 102
f 103 105 104
f 105 106 104
f 105 107 108
f 105 108 106
f 107 109 108
f 109 110 108
f 109 111 110
f 111 112 110
f 111 113 114
f 111 114 112
f 113 115 114
f 115 116 114
f 115 117 116
f 117 118 116
f 117 119 118
f 119 120 118
f 119 121 120
f 121 122 120
f 121 123 122
f 123 124 122
f 123 125 124
f 125 126 124
f 125 127 128
f 125 128 126
f 127 129 128
f 129 130 128
f 129 131 130
f 131 132 130
f 131 133 132
f 133 134 132
f 133 135 134
f 135 136 134
f 135 137 136
f 137 138 136
f 137 139 138
f 139 140 138
f 139 141 140
f 141 142 140
f 141 143 142
f 143 144 142
f 143 1 144
f 1 3 144
f 28 128 130
f 28 130 26
f 78 80 76
f 26 130 132
f 76 80 82
f 26 132 24
f 22 24 134
f 76 82 74
f 24 132 134
f 82 84 72
f 134 136 20
f 74 82 72
f 22 134 20
f 72 84 86
f 20 136 18
f 72 86 70
f 18 136 138
f 18 138 16
f 86 88 68
f 16 138 140
f 16 140 14
f 70 86 68
f 68 88 90
f 14 140 142
f 14 142 12
f 68 90 66
f 66 90 92
f 12 142 144
f 66 92 64
f 12 144 10
f 10 144 3
f 64 92 62
f 92 94 62
f 3 4 8
f 10 3 8
f 62 94 96
f 8 4 6
f 62 96 60
f 60 96 58
f 96 98 58
f 58 98 100
f 58 100 56
f 56 100 54
f 100 102 54
f 54 102 52
f 102 104 52
f 52 104 106
f 52 106 50
f 50 106 48
f 48 106 108
f 48 108 110
f 48 110 46
f 44 46 112
f 46 110 112
f 44 112 42
f 42 112 114
f 42 114 40
f 40 114 116
f 40 116 38
f 38 116 118
f 38 118 120
f 38 120 36
f 36 120 34
f 34 120 122
f 122 124 32
f 34 122 32
f 32 124 126
f 32 126 30
f 30 126 128
f 30 128 28
f 129 127 27
f 25 129 27
f 75 79 77
f 131 129 25
f 81 79 75
f 23 131 25
f 133 23 21
f 73 81 75
f 133 131 23
f 71 83 81
f 19 135 133
f 71 81 73
f 19 133 21
f 85 83 71
f 17 135 19
f 69 85 71
f 137 135 17
f 15 137 17
f 67 87 85
f 139 137 15
f 13 139 15
f 67 85 69
f 89 87 67
f 141 139 13
f 11 141 13
f 65 89 67
f 91 89 65
f 143 141 11
f 63 91 65
f 9 143 11
f 1 143 9
f 61 91 63
f 61 93 91
f 7 2 1
f 7 1 9
f 95 93 61
f 5 2 7
f 59 95 61
f 57 95 59
f 57 97 95
f 99 97 57
f 55 99 57
f 53 99 55
f 53 101 99
f 51 103 101
f 51 101 53
f 105 103 51
f 49 105 51
f 47 105 49
f 107 105 47
f 109 107 47
f 45 109 47
f 111 109 45
f 111 45 43
f 41 111 43
f 113 111 41
f 39 113 41
f 115 113 39
f 37 115 39
f 117 115 37
f 119 117 37
f 35 119 37
f 33 119 35
f 121 119 33
f 31 123 121
f 31 121 33
f 125 123 31
f 29 125 31
f 127 125 29
f 27 127 29
